@startuml

interface Player {
	+ username: String
	+ score: Int
	+ rankingPos: Int
	+ friends: List[Player]
}

Player <|.down. BasePlayer

abstract class BasePlayer

BasePlayer <|-down- PojoPlayer

class PojoPlayer

BasePlayer <|-down- AuthenticatedPlayer

interface AuthenticatedPlayer {
    + auth: Auth
}

note "Strategy pattern for\nauthentication\ntechnologies" as n1

n1 .left. Auth

SqlAuthenticatedPlayer "1" -down-* "1" SqlAuth

SqlAuthenticatedPlayer ..|> AuthenticatedPlayer

interface Auth {
    + check(): Boolean
    + renew(): Auth
}

UserAuth -up-|> Auth

interface UserAuth {
    + username(): String
}

UserPassAuth .up.|> UserAuth

abstract class UserPassAuth {
    + username(): String
    - password(): String
    + passwordHash(): String
}

SqlAuth .up.|> UserPassAuth

Anonymous .up.|> UserPassAuth

@enduml