@startuml

[*] --> Started : Created by\nClientRunner

Started --> Running : Receive GuiToManagerPresentation()

Running : - GuiActor reference

Running --> AskingDiscovery : Receive PlayerWantsToStartGame()

AskingDiscovery -right-> WaitingRest  : GET /discovery

WaitingRest -left-> AskingDiscovery : Response as JSON

AskingDiscovery: - GuiActor reference

AskingDiscovery : - DiscoveryActor Optional[reference]

AskingDiscovery --> AskingMasterLobby : Send WhoIsMasterLobby()\nto DiscoveryActor

AskingMasterLobby : - GuiActor reference
AskingMasterLobby : - DiscoveryActor reference

AskingMasterLobby --> CreatingLobby : Receive MasterLobbyIs(ActroRef)

CreatingLobby : - GuiActor reference
CreatingLobby : - DiscoveryActor reference
CreatingLobby : - MasterLobby reference

CreatingLobby --> AskingCreation : Send CreateThisLobby()

AskingCreation : - GuiActor reference
AskingCreation : - DiscoveryActor reference
AskingCreation : - MasterLobby reference

AskingCreation --> LobbyCreated : Receive Hello(owner, players)

'TODO

@enduml