@startuml

package "Client" {
    [Registered User] #lightblue
    [Anonymous User] #lightblue
}

node "Server" {
    interface HTTP #red
    [HTTP Server] #lightgreen
    HTTP - [HTTP Server]: Listen
    database "MySQL DB" #pink{
        [ Resources ]
    }
}

[Registered User] --> HTTP : Use <<credentials>>
[Anonymous User] --> HTTP : Use





[HTTP Server] --> [ Resources ]: Query



@enduml